solutions\misi\mysteryhunt\commands\SpawnTreasureCommand.class
solutions\misi\mysteryhunt\sql\MhPlayersTable.class
solutions\misi\mysteryhunt\events\PlayerInteractListener$1.class
solutions\misi\mysteryhunt\util\SchedulerManager.class
solutions\misi\mysteryhunt\commands\HuntingToolCommand.class
solutions\misi\mysteryhunt\plugin\PluginHandler.class
solutions\misi\mysteryhunt\util\SchedulerManager$3.class
solutions\misi\mysteryhunt\objects\HuntingTool.class
solutions\misi\mysteryhunt\util\CooldownManager.class
solutions\misi\mysteryhunt\objects\Parachute$1.class
solutions\misi\mysteryhunt\sql\MhServerTable.class
solutions\misi\mysteryhunt\expansion\TreasureExpansion.class
solutions\misi\mysteryhunt\expansion\ServerTreasureExpansion.class
solutions\misi\mysteryhunt\util\SchedulerManager$1.class
solutions\misi\mysteryhunt\util\FileManager.class
solutions\misi\mysteryhunt\plugin\DependencyManager.class
solutions\misi\mysteryhunt\expansion\PointsExpansion.class
solutions\misi\mysteryhunt\util\SchedulerManager$2.class
solutions\misi\mysteryhunt\events\PlayerInteractListener.class
solutions\misi\mysteryhunt\events\BlockBreakListener.class
solutions\misi\mysteryhunt\events\PlayerJoinListener.class
solutions\misi\mysteryhunt\commands\MysteryHuntCommand.class
solutions\misi\mysteryhunt\sql\MySQL.class
solutions\misi\mysteryhunt\objects\Parachute.class
solutions\misi\mysteryhunt\plugin\Messages.class
solutions\misi\mysteryhunt\events\PlayerArmorStandManipulateListener.class
solutions\misi\mysteryhunt\util\LocationHandler.class
solutions\misi\mysteryhunt\MysteryHunt.class
solutions\misi\mysteryhunt\objects\Treasures.class
